<svg width="1440" height="924" viewBox="0 0 1440 924" fill="none" xmlns="http://www.w3.org/2000/svg">
<g opacity="0.3" filter="url(#filter0_f)">
<circle cx="1126" cy="586" r="594" fill="white"/>
</g>
<g opacity="0.3" filter="url(#filter1_f)">
<circle cx="47" cy="981" r="594" fill="white"/>
</g>
<g opacity="0.3" filter="url(#filter2_f)">
<circle cx="1075" cy="547" r="377" fill="#8F8F8F"/>
</g>
<g opacity="0.4" filter="url(#filter3_f)">
<ellipse cx="190.5" cy="889" rx="348.5" ry="191" fill="#B3B3B3"/>
</g>
<circle opacity="0.5" cx="1127" cy="496" r="13" fill="white"/>
<circle opacity="0.5" cx="1177" cy="390" r="36" fill="white"/>
<circle opacity="0.9" cx="1381" cy="32" r="315" fill="url(#paint0_linear)"/>
<circle opacity="0.5" cx="221" cy="523" r="299" fill="white"/>
<circle opacity="0.3" cx="137" cy="175" r="75" fill="url(#paint1_linear)"/>
<circle opacity="0.2" cx="1271" cy="545" r="43" fill="url(#paint2_linear)"/>
<circle opacity="0.3" r="11" transform="matrix(1 0 0 -1 194 462)" fill="url(#paint3_linear)"/>
<defs>
<filter id="filter0_f" x="282" y="-258" width="1688" height="1688" filterUnits="userSpaceOnUse" color-interpolation-filters="sRGB">
<feFlood flood-opacity="0" result="BackgroundImageFix"/>
<feBlend mode="normal" in="SourceGraphic" in2="BackgroundImageFix" result="shape"/>
<feGaussianBlur stdDeviation="125" result="effect1_foregroundBlur"/>
</filter>
<filter id="filter1_f" x="-797" y="137" width="1688" height="1688" filterUnits="userSpaceOnUse" color-interpolation-filters="sRGB">
<feFlood flood-opacity="0" result="BackgroundImageFix"/>
<feBlend mode="normal" in="SourceGraphic" in2="BackgroundImageFix" result="shape"/>
<feGaussianBlur stdDeviation="125" result="effect1_foregroundBlur"/>
</filter>
<filter id="filter2_f" x="448" y="-80" width="1254" height="1254" filterUnits="userSpaceOnUse" color-interpolation-filters="sRGB">
<feFlood flood-opacity="0" result="BackgroundImageFix"/>
<feBlend mode="normal" in="SourceGraphic" in2="BackgroundImageFix" result="shape"/>
<feGaussianBlur stdDeviation="125" result="effect1_foregroundBlur"/>
</filter>
<filter id="filter3_f" x="-408" y="448" width="1197" height="882" filterUnits="userSpaceOnUse" color-interpolation-filters="sRGB">
<feFlood flood-opacity="0" result="BackgroundImageFix"/>
<feBlend mode="normal" in="SourceGraphic" in2="BackgroundImageFix" result="shape"/>
<feGaussianBlur stdDeviation="125" result="effect1_foregroundBlur"/>
</filter>
<linearGradient id="paint0_linear" x1="1133.35" y1="-217.755" x2="1609.71" y2="253.693" gradientUnits="userSpaceOnUse">
<stop stop-color="white"/>
<stop offset="1" stop-color="white" stop-opacity="0"/>
</linearGradient>
<linearGradient id="paint1_linear" x1="212" y1="175" x2="122.866" y2="81.4081" gradientUnits="userSpaceOnUse">
<stop stop-color="#ABBBFF"/>
<stop offset="1" stop-color="#F1EFFE"/>
</linearGradient>
<linearGradient id="paint2_linear" x1="1228" y1="530.043" x2="1275.18" y2="590.334" gradientUnits="userSpaceOnUse">
<stop stop-color="#FF9900"/>
<stop offset="0.921875" stop-color="#F16262"/>
</linearGradient>
<linearGradient id="paint3_linear" x1="22" y1="11" x2="8.92705" y2="-2.72682" gradientUnits="userSpaceOnUse">
<stop stop-color="#ABBBFF"/>
<stop offset="1" stop-color="#F1EFFE"/>
</linearGradient>
</defs>
</svg>
